<?xml version="1.0" encoding="utf-8"?>
<!-- Generator: Adobe Illustrator 20.1.0, SVG Export Plug-In . SVG Version: 6.00 Build 0)  -->
<svg version="1.1" id="圖層_1" xmlns="http://www.w3.org/2000/svg" xmlns:xlink="http://www.w3.org/1999/xlink" x="0px" y="0px"
	 viewBox="0 0 425.2 425.2" style="enable-background:new 0 0 425.2 425.2;" xml:space="preserve">
<style type="text/css">
	.st0{fill:url(#SVGID_1_);}
	.st1{fill:#FFFFFF;}
</style>
<g>
	
		<linearGradient id="SVGID_1_" gradientUnits="userSpaceOnUse" x1="-379.7453" y1="632.196" x2="-379.7453" y2="631.0193" gradientTransform="matrix(224 0 0 -225.72 85275.5547 142782.6094)">
		<stop  offset="0" style="stop-color:#00C6FF"/>
		<stop  offset="1" style="stop-color:#0068FF"/>
	</linearGradient>
	<path class="st0" d="M118.9,308.8v53.2l49.8-28.3c13.9,4,28.6,6.2,43.9,6.2c81.9,0,148.3-62,148.3-138.4
		c0-76.4-66.4-138.4-148.3-138.4c-81.9,0-148.3,62-148.3,138.4C64.3,244.8,85.6,283.5,118.9,308.8L118.9,308.8z"/>
	<path class="st1" d="M196.8,163.4l-80,84.7l72.8-39.9l38,39.9l79.5-84.7l-72,39.2C235.2,202.7,196.8,163.4,196.8,163.4z"/>
</g>
</svg>
