<?xml version="1.0" encoding="UTF-8"?>
<svg width="403px" height="120px" viewBox="0 0 403 120" version="1.1" xmlns="http://www.w3.org/2000/svg" xmlns:xlink="http://www.w3.org/1999/xlink">
    <!-- Generator: Sketch 54.1 (76490) - https://sketchapp.com -->
    <title>下載App/IOS-app-store</title>
    <desc>Created with Sketch.</desc>
    <g id="Web_Rwd_閃殺活動領卷" stroke="none" stroke-width="1" fill="none" fill-rule="evenodd">
        <g id="成功" transform="translate(-519.000000, -723.000000)">
            <g id="下載App/IOS-app-store" transform="translate(519.000000, 723.000000)">
                <g fill-rule="nonzero">
                    <path d="M400.661157,105.057087 C400.661159,108.091223 399.454242,111.000914 397.306252,113.145253 C395.158261,115.289591 392.245396,116.492675 389.209264,116.489506 L14.4420342,116.489506 C8.1168424,116.496105 2.98344983,111.378116 2.97520661,105.057087 L2.97520661,13.8872706 C2.98344547,7.56382854 8.11442452,2.44156743 14.4420342,2.43992606 L389.206277,2.43992606 C392.244026,2.43992596 395.157312,3.64607727 397.305045,5.79295666 C399.452777,7.93983605 400.658962,10.8515206 400.65817,13.8872706 L400.661157,105.057087 Z" id="Path" fill="#FFFFFF"></path>
                    <path d="M388.53538,119.464719 L14.1122276,119.464719 C6.32825292,119.463092 0.0148107749,113.177572 0,105.414905 L0,14.5211492 C0.0115151356,6.75470956 6.32447812,0.463010156 14.1122276,0.456454988 L388.532396,0.456454988 C396.318786,0.466280588 402.62983,6.7560677 402.644624,14.5211492 L402.644624,105.414905 C402.650592,113.164474 396.309192,119.464719 388.53538,119.464719 L388.53538,119.464719 Z" id="Path" fill="#A6A6A6"></path>
                    <path d="M400.661157,105.057087 C400.661159,108.091223 399.454242,111.000914 397.306252,113.145253 C395.158261,115.289591 392.245396,116.492675 389.209264,116.489506 L14.4420342,116.489506 C8.1168424,116.496105 2.98344983,111.378116 2.97520661,105.057087 L2.97520661,13.8872706 C2.98344547,7.56382854 8.11442452,2.44156743 14.4420342,2.43992606 L389.206277,2.43992606 C392.244026,2.43992596 395.157312,3.64607727 397.305045,5.79295666 C399.452777,7.93983605 400.658962,10.8515206 400.65817,13.8872706 L400.661157,105.057087 Z" id="Path" fill="#000000"></path>
                    <path d="M84.0339232,58.9177253 C83.9480139,49.2703362 91.8516644,44.5768499 92.2130757,44.3583394 C87.7369079,37.7641109 80.7989958,36.8631292 78.3609507,36.7912901 C72.533934,36.1716781 66.8816982,40.3143981 63.9133856,40.3143981 C60.8858254,40.3143981 56.3148611,36.851156 51.3884103,36.952928 C45.0489005,37.0517067 39.1182002,40.760399 35.8654985,46.5194982 C29.1527279,58.2621938 34.1591632,75.5185383 40.5905069,85.0102762 C43.80766,89.6618563 47.5669301,94.8492362 52.4874561,94.6666452 C57.3013362,94.4690878 59.0995056,91.5685851 64.9087479,91.5685851 C70.6646673,91.5685851 72.3532283,94.6666452 77.3715131,94.5499067 C82.5379174,94.4690878 85.7906191,89.8803668 88.8952015,85.1898738 C92.6129981,79.8648024 94.1060415,74.6145633 94.1652893,74.3451668 C94.0467937,74.3032606 84.1346444,70.4778299 84.0339232,58.9177253 Z M74.5542824,30.5472771 C77.1434093,27.2756059 78.9149172,22.8245765 78.4231608,18.3076947 C74.6757403,18.4753192 69.9892429,20.9268276 67.2905077,24.1266598 C64.9028231,26.9463435 62.769904,31.5679907 63.3209081,35.9142547 C67.5304611,36.231544 71.8525848,33.7680623 74.5542824,30.5472771 L74.5542824,30.5472771 Z" id="Shape" fill="#FFFFFF"></path>
                    <g id="Group" transform="translate(130.000000, 20.000000)" fill="#FFFFFF">
                        <path d="M32.8746045,39.9745185 L26.2869392,39.9745185 L22.6783722,28.6818519 L10.1354111,28.6818519 L6.69798994,39.9745185 L0.284371285,39.9745185 L12.7142021,1.52918519 L20.3896589,1.52918519 L32.8746045,39.9745185 L32.8746045,39.9745185 Z M21.5905807,23.9440741 L18.3272062,13.9051852 C17.9820137,12.8796296 17.3322396,10.4645185 16.3807846,6.66274074 L16.2647535,6.66274074 C15.8818509,8.29785185 15.2697869,10.712963 14.4314623,13.9051852 L11.2232026,23.9440741 L21.5905807,23.9440741 Z M64.7773535,25.7727407 C64.7773535,30.4874074 63.4923091,34.2140741 60.9193196,36.9498519 C58.6161024,39.3851852 55.7530352,40.6014074 52.3388203,40.6014074 C48.6519323,40.6014074 46.0006219,39.2927407 44.3906904,36.6696296 L44.3906904,51.2151852 L38.2062332,51.2151852 L38.2062332,21.3642963 C38.2062332,18.4031852 38.1279122,15.366963 37.9770718,12.2527407 L43.4160293,12.2527407 L43.7612218,16.6467407 L43.8772529,16.6467407 C45.9397055,13.3360741 49.0696443,11.6807407 53.2699698,11.6807407 C56.5536497,11.6807407 59.2948843,12.9720741 61.487872,15.5576296 C63.6779588,18.148963 64.7773535,21.5520741 64.7773535,25.7727407 Z M58.4768651,25.9980741 C58.4768651,23.2998519 57.8677019,21.0754074 56.6435738,19.3218519 C55.3063155,17.498963 53.5107343,16.5860741 51.2597311,16.5860741 C49.7339223,16.5860741 48.3473507,17.0945185 47.1087188,18.096963 C45.8671861,19.1080741 45.0549684,20.4282963 44.6749666,22.0634074 C44.5053261,22.6749032 44.4089304,23.3042408 44.3877897,23.9382963 L44.3877897,28.5634074 C44.3877897,30.576963 45.008556,32.2785185 46.2500887,33.670963 C47.4916214,35.0576296 49.1044536,35.7538519 51.0885853,35.7538519 C53.4179095,35.7538519 55.2308953,34.8554074 56.5275428,33.072963 C57.827091,31.2847407 58.4768651,28.9274074 58.4768651,25.9980741 L58.4768651,25.9980741 Z M96.7932327,25.7727407 C96.7932327,30.4874074 95.5081884,34.2140741 92.9351989,36.9498519 C90.6290809,39.3851852 87.7689145,40.6014074 84.3517988,40.6014074 C80.6649108,40.6014074 78.0136004,39.2927407 76.403669,36.6696296 L76.403669,51.2151852 L70.2192117,51.2151852 L70.2192117,21.3642963 C70.2192117,18.4031852 70.1408907,15.366963 69.9900503,12.2527407 L75.4290078,12.2527407 L75.7742003,16.6467407 L75.8902314,16.6467407 C77.9497833,13.3360741 81.079722,11.6807407 85.2829483,11.6807407 C88.5637275,11.6807407 91.304962,12.9720741 93.5037513,15.5576296 C95.6909374,18.148963 96.7932327,21.5520741 96.7932327,25.7727407 L96.7932327,25.7727407 Z M90.4898436,25.9980741 C90.4898436,23.2998519 89.8777796,21.0754074 88.6536516,19.3218519 C87.3163932,17.498963 85.5266136,16.5860741 83.2756104,16.5860741 C81.7498016,16.5860741 80.36323,17.0945185 79.1187965,18.096963 C77.8772638,19.1080741 77.067947,20.4282963 76.6879451,22.0634074 C76.4993946,22.8260741 76.3978674,23.4471852 76.3978674,23.9382963 L76.3978674,28.5634074 C76.3978674,30.576963 77.0215345,32.2785185 78.2572657,33.670963 C79.4987984,35.0547407 81.1116305,35.7538519 83.1015638,35.7538519 C85.4337888,35.7538519 87.2467746,34.8554074 88.5405213,33.072963 C89.8400695,31.2847407 90.4898436,28.9274074 90.4898436,25.9980741 L90.4898436,25.9980741 Z M132.588825,29.1902963 C132.588825,32.4634074 131.440117,35.1240741 129.157205,37.1780741 C126.645132,39.4198519 123.138092,40.5436296 118.641888,40.5436296 C114.487974,40.5436296 111.157882,39.7462963 108.645809,38.1487407 L110.075892,33.0151852 C112.788119,34.6156296 115.767217,35.412963 119.010286,35.412963 C121.342511,35.412963 123.155497,34.8871852 124.449244,33.8442963 C125.745891,32.7985185 126.401467,31.4002963 126.401467,29.6554074 C126.401467,28.0925185 125.859021,26.7838519 124.794436,25.7178519 C123.724049,24.6547407 121.954575,23.6638519 119.468609,22.7538519 C112.709798,20.2434074 109.327492,16.5716296 109.327492,11.7414074 C109.327492,8.58674074 110.522612,6.00407407 112.907051,3.98474074 C115.29149,1.9682963 118.453337,0.960074074 122.386791,0.960074074 C125.899632,0.960074074 128.826517,1.56962963 131.150039,2.78585185 L129.598123,7.80674074 C127.410937,6.62807407 124.942376,6.03874074 122.180836,6.03874074 C119.999451,6.03874074 118.287993,6.57318519 117.063865,7.6362963 C116.034089,8.58674074 115.511949,9.74518519 115.511949,11.1202963 C115.511949,12.636963 116.106608,13.8965185 117.290125,14.8845185 C118.317,15.7945185 120.190903,16.7854074 122.900229,17.8485185 C126.224519,19.1831852 128.666974,20.7374074 130.230493,22.5227407 C131.805615,24.3080741 132.588825,26.5354074 132.588825,29.1902963 Z M153.088618,16.874963 L146.271791,16.874963 L146.271791,30.3342963 C146.271791,33.7576296 147.472713,35.464963 149.880358,35.464963 C150.985555,35.464963 151.9022,35.3725185 152.627395,35.178963 L152.79854,39.8560741 C151.580214,40.3096296 149.976084,40.5378519 147.989052,40.5378519 C145.546597,40.5378519 143.637886,39.7954074 142.260016,38.3105185 C140.887949,36.8256296 140.197564,34.3382963 140.197564,30.836963 L140.197564,16.8634074 L136.136476,16.8634074 L136.136476,12.2411852 L140.197564,12.2411852 L140.197564,7.16540741 L146.271791,5.33962963 L146.271791,12.2411852 L153.088618,12.2411852 L153.088618,16.874963 L153.088618,16.874963 Z M183.784644,25.8854074 C183.784644,30.1465185 182.560516,33.644963 180.118061,36.3807407 C177.562476,39.1974074 174.162765,40.6014074 169.92473,40.6014074 C165.834634,40.6014074 162.582862,39.2522963 160.157813,36.556963 C157.732763,33.8558519 156.520238,30.4527407 156.520238,26.3476296 C156.520238,22.0518519 157.773374,18.5331852 160.270943,15.7974074 C162.774314,13.0587407 166.145017,11.6894074 170.383053,11.6894074 C174.467347,11.6894074 177.748126,13.0414074 180.231192,15.7396296 C182.604027,18.356963 183.784644,21.736963 183.784644,25.8854074 Z M177.373926,26.026963 C177.373926,23.4876296 176.822778,21.3094074 175.717582,19.4865185 C174.420935,17.2851852 172.564437,16.1845185 170.159693,16.1845185 C167.682429,16.1845185 165.78242,17.2851852 164.488673,19.4865185 C163.380576,21.3094074 162.829428,23.5251852 162.829428,26.1425185 C162.829428,28.6847407 163.380576,30.8687407 164.488673,32.6858519 C165.825931,34.8871852 167.691131,35.9878519 170.107479,35.9878519 C172.471612,35.9878519 174.325209,34.8640741 175.665368,32.630963 C176.802473,30.7647407 177.373926,28.5720741 177.373926,26.026963 Z M203.895733,17.6694074 C203.252504,17.5537567 202.600034,17.4967061 201.946411,17.498963 C199.770828,17.498963 198.088377,18.3136296 196.90486,19.9545185 C195.877984,21.398963 195.361646,23.2247407 195.361646,25.428963 L195.361646,39.9745185 L189.177189,39.9745185 L189.177189,20.982963 C189.182704,18.0728792 189.12274,15.1630377 188.997341,12.2556296 L194.384084,12.2556296 L194.610345,17.5596296 L194.781491,17.5596296 C195.437066,15.7367407 196.463941,14.2662963 197.873719,13.1656296 C199.16414,12.2038541 200.732041,11.6830245 202.343817,11.6807407 C202.91527,11.6807407 203.431609,11.7211852 203.889931,11.7934074 L203.895733,17.6694074 L203.895733,17.6694074 Z M231.554645,24.8020741 C231.570327,25.7383619 231.49455,26.6739499 231.328384,27.5956296 L212.775012,27.5956296 C212.844631,30.3342963 213.743872,32.4316296 215.466934,33.8760741 C217.030453,35.1645185 219.052294,35.8116296 221.53536,35.8116296 C224.282396,35.8116296 226.788668,35.3782963 229.042572,34.502963 L230.011431,38.7756296 C227.377525,39.9196296 224.267892,40.4887407 220.679631,40.4887407 C216.363274,40.4887407 212.975166,39.2234074 210.509505,36.6985185 C208.049646,34.1707407 206.816816,30.7734074 206.816816,26.5180741 C206.816816,22.3407407 207.962623,18.8596296 210.257138,16.0834074 C212.658981,13.1194074 215.904951,11.6374074 219.989246,11.6374074 C224.001021,11.6374074 227.038134,13.1194074 229.100587,16.0834074 C230.733725,18.4320741 231.554645,21.3440741 231.554645,24.8020741 L231.554645,24.8020741 Z M225.657364,23.2045185 C225.700876,21.3758519 225.294767,19.8014074 224.456443,18.4696296 C223.386056,16.7536296 221.738414,15.8985185 219.530923,15.8985185 C217.509081,15.8985185 215.861439,16.7334074 214.608304,18.408963 C213.578528,19.7407407 212.966464,21.3411852 212.777913,23.1987407 L225.657364,23.2045185 Z" id="Shape"></path>
                    </g>
                </g>
                <text id="立即下載" font-family="PingFangTC-Regular, PingFang TC" font-size="22" font-weight="normal" letter-spacing="0.06722866" fill="#FFFFFF">
                    <tspan x="130.365543" y="101">立即下載</tspan>
                </text>
            </g>
        </g>
    </g>
</svg>