===== Daily Task List =====
==== Debbie Task ====
^ No ^ Layer ^ Task ^ Owner ^ 預估工時 ^ 誤差工時 ^ 實際工時 ^ Description ^



==== Howard Task ====
^ No ^ Layer ^ Task ^ Owner ^ 預估工時 ^ 誤差工時 ^ 實際工時 ^ Description ^


==== Yumin Task ====
^ No ^ Layer ^ Task ^ Owner ^ 預估工時 ^ 誤差工時 ^ 實際工時 ^ Description ^


===== Example =====
==== Howard Task ====
^ No ^ Layer ^ Task ^ Owner ^ 預估工時 ^ 誤差工時 ^ 實際工時 ^ Description ^
| | | 經銷商分館功能 | Howard |    4     |   1       |    3.5     |             |