===== Daily Task List =====
==== Debbie Task ====
^ No ^ Layer ^ Task ^ Owner ^ 預估工時 ^ 誤差工時 ^ 實際工時 ^ Description ^



==== Howard Task ====
^ No ^ Layer ^ Task ^ Owner ^ 預估工時 ^ 誤差工時 ^ 實際工時 ^ Description ^
|  |  | 下標修正 | Howard |  |  |  2  | 修改下標流程 |
|  |  | 競標商品倒數 | Howard |  |  |  3  |  |
|  |  | 註冊功能修正 | Howard |  |  |  2  |  |
|  |  | 登入功能UI | Howard |  |  |  1  |  |
==== Yumin Task ====
^ No ^ Layer ^ Task ^ Owner ^ 預估工時 ^ 誤差工時 ^ 實際工時 ^ Description ^


===== Example =====
==== Howard Task ====
^ No ^ Layer ^ Task ^ Owner ^ 預估工時 ^ 誤差工時 ^ 實際工時 ^ Description ^
| | | 經銷商分館功能 | Howard |    4     |   1       |    3.5     |             |